{
	"name" 			: "ajax",
	"version" 		: "1.2.26",
	"description" 	: "This module enables AJAX GET & POST + FILE sending.",
	"author" : {
		"name" 	: "Jonathan Hattab",
		"email" : "jonathanhattab@madjoh.com"
	},
	"dependencies" : {
		"session" 			: "1.0",
		"spinner" 			: "1.0",
		"msgbox" 			: "1.1",
		"language" 			: "1.0",
		"custom_events" 	: "1.0",
		"json_url" 			: "1.0",
		"api_middleware" 	: "1.0"
	},
	"devDependencies" : {},
	"settings" : {
		"game" : "1.0"
	}
}